%YAML 1.1
%TAG !u! tag:unity3d.com,2011:
--- !u!29 &1
OcclusionCullingSettings:
  m_ObjectHideFlags: 0
  serializedVersion: 2
  m_OcclusionBakeSettings:
    smallestOccluder: 5
    smallestHole: 0.25
    backfaceThreshold: 100
  m_SceneGUID: 00000000000000000000000000000000
  m_OcclusionCullingData: {fileID: 0}
--- !u!104 &2
RenderSettings:
  m_ObjectHideFlags: 0
  serializedVersion: 9
  m_Fog: 0
  m_FogColor: {r: 0.5, g: 0.5, b: 0.5, a: 1}
  m_FogMode: 3
  m_FogDensity: 0.01
  m_LinearFogStart: 0
  m_LinearFogEnd: 300
  m_AmbientSkyColor: {r: 0.212, g: 0.227, b: 0.259, a: 1}
  m_AmbientEquatorColor: {r: 0.114, g: 0.125, b: 0.133, a: 1}
  m_AmbientGroundColor: {r: 0.047, g: 0.043, b: 0.035, a: 1}
  m_AmbientIntensity: 1
  m_AmbientMode: 0
  m_SubtractiveShadowColor: {r: 0.42, g: 0.478, b: 0.627, a: 1}
  m_SkyboxMaterial: {fileID: 10304, guid: 0000000000000000f000000000000000, type: 0}
  m_HaloStrength: 0.5
  m_FlareStrength: 1
  m_FlareFadeSpeed: 3
  m_HaloTexture: {fileID: 0}
  m_SpotCookie: {fileID: 10001, guid: 0000000000000000e000000000000000, type: 0}
  m_DefaultReflectionMode: 0
  m_DefaultReflectionResolution: 128
  m_ReflectionBounces: 1
  m_ReflectionIntensity: 1
  m_CustomReflection: {fileID: 0}
  m_Sun: {fileID: 0}
  m_IndirectSpecularColor: {r: 0, g: 0, b: 0, a: 1}
  m_UseRadianceAmbientProbe: 0
--- !u!157 &3
LightmapSettings:
  m_ObjectHideFlags: 0
  serializedVersion: 11
  m_GIWorkflowMode: 1
  m_GISettings:
    serializedVersion: 2
    m_BounceScale: 1
    m_IndirectOutputScale: 1
    m_AlbedoBoost: 1
    m_EnvironmentLightingMode: 0
    m_EnableBakedLightmaps: 1
    m_EnableRealtimeLightmaps: 0
  m_LightmapEditorSettings:
    serializedVersion: 12
    m_Resolution: 2
    m_BakeResolution: 40
    m_AtlasSize: 1024
    m_AO: 0
    m_AOMaxDistance: 1
    m_CompAOExponent: 1
    m_CompAOExponentDirect: 0
    m_ExtractAmbientOcclusion: 0
    m_Padding: 2
    m_LightmapParameters: {fileID: 0}
    m_LightmapsBakeMode: 1
    m_TextureCompression: 1
    m_FinalGather: 0
    m_FinalGatherFiltering: 1
    m_FinalGatherRayCount: 256
    m_ReflectionCompression: 2
    m_MixedBakeMode: 2
    m_BakeBackend: 1
    m_PVRSampling: 1
    m_PVRDirectSampleCount: 32
    m_PVRSampleCount: 512
    m_PVRBounces: 2
    m_PVREnvironmentSampleCount: 256
    m_PVREnvironmentReferencePointCount: 2048
    m_PVRFilteringMode: 1
    m_PVRDenoiserTypeDirect: 1
    m_PVRDenoiserTypeIndirect: 1
    m_PVRDenoiserTypeAO: 1
    m_PVRFilterTypeDirect: 0
    m_PVRFilterTypeIndirect: 0
    m_PVRFilterTypeAO: 0
    m_PVREnvironmentMIS: 1
    m_PVRCulling: 1
    m_PVRFilteringGaussRadiusDirect: 1
    m_PVRFilteringGaussRadiusIndirect: 5
    m_PVRFilteringGaussRadiusAO: 2
    m_PVRFilteringAtrousPositionSigmaDirect: 0.5
    m_PVRFilteringAtrousPositionSigmaIndirect: 2
    m_PVRFilteringAtrousPositionSigmaAO: 1
    m_ExportTrainingData: 0
    m_TrainingDataDestination: TrainingData
    m_LightProbeSampleCountMultiplier: 4
  m_LightingDataAsset: {fileID: 0}
  m_UseShadowmask: 1
--- !u!196 &4
NavMeshSettings:
  serializedVersion: 2
  m_ObjectHideFlags: 0
  m_BuildSettings:
    serializedVersion: 2
    agentTypeID: 0
    agentRadius: 0.5
    agentHeight: 2
    agentSlope: 45
    agentClimb: 0.4
    ledgeDropHeight: 0
    maxJumpAcrossDistance: 0
    minRegionArea: 2
    manualCellSize: 0
    cellSize: 0.16666667
    manualTileSize: 0
    tileSize: 256
    accuratePlacement: 0
    debug:
      m_Flags: 0
  m_NavMeshData: {fileID: 0}
--- !u!1 &42285930
GameObject:
  m_ObjectHideFlags: 0
  m_CorrespondingSourceObject: {fileID: 0}
  m_PrefabInstance: {fileID: 0}
  m_PrefabAsset: {fileID: 0}
  serializedVersion: 6
  m_Component:
  - component: {fileID: 42285933}
  - component: {fileID: 42285932}
  - component: {fileID: 42285931}
  m_Layer: 0
  m_Name: Main Camera
  m_TagString: MainCamera
  m_Icon: {fileID: 0}
  m_NavMeshLayer: 0
  m_StaticEditorFlags: 0
  m_IsActive: 1
--- !u!81 &42285931
AudioListener:
  m_ObjectHideFlags: 0
  m_CorrespondingSourceObject: {fileID: 0}
  m_PrefabInstance: {fileID: 0}
  m_PrefabAsset: {fileID: 0}
  m_GameObject: {fileID: 42285930}
  m_Enabled: 1
--- !u!20 &42285932
Camera:
  m_ObjectHideFlags: 0
  m_CorrespondingSourceObject: {fileID: 0}
  m_PrefabInstance: {fileID: 0}
  m_PrefabAsset: {fileID: 0}
  m_GameObject: {fileID: 42285930}
  m_Enabled: 1
  serializedVersion: 2
  m_ClearFlags: 1
  m_BackGroundColor: {r: 0.19215687, g: 0.3019608, b: 0.4745098, a: 0}
  m_projectionMatrixMode: 1
  m_GateFitMode: 2
  m_FOVAxisMode: 0
  m_SensorSize: {x: 36, y: 24}
  m_LensShift: {x: 0, y: 0}
  m_FocalLength: 50
  m_NormalizedViewPortRect:
    serializedVersion: 2
    x: 0
    y: 0
    width: 1
    height: 1
  near clip plane: 0.3
  far clip plane: 1000
  field of view: 60
  orthographic: 0
  orthographic size: 5
  m_Depth: -1
  m_CullingMask:
    serializedVersion: 2
    m_Bits: 4294967295
  m_RenderingPath: -1
  m_TargetTexture: {fileID: 0}
  m_TargetDisplay: 0
  m_TargetEye: 3
  m_HDR: 1
  m_AllowMSAA: 1
  m_AllowDynamicResolution: 0
  m_ForceIntoRT: 0
  m_OcclusionCulling: 1
  m_StereoConvergence: 10
  m_StereoSeparation: 0.022
--- !u!4 &42285933
Transform:
  m_ObjectHideFlags: 0
  m_CorrespondingSourceObject: {fileID: 0}
  m_PrefabInstance: {fileID: 0}
  m_PrefabAsset: {fileID: 0}
  m_GameObject: {fileID: 42285930}
  m_LocalRotation: {x: 0, y: 0, z: 0, w: 1}
  m_LocalPosition: {x: 0, y: 1, z: -3.399}
  m_LocalScale: {x: 1, y: 1, z: 1}
  m_Children: []
  m_Father: {fileID: 0}
  m_RootOrder: 0
  m_LocalEulerAnglesHint: {x: 0, y: 0, z: 0}
--- !u!1001 &48439446
PrefabInstance:
  m_ObjectHideFlags: 0
  serializedVersion: 2
  m_Modification:
    m_TransformParent: {fileID: 0}
    m_Modifications:
    - target: {fileID: 6488326630060894304, guid: c68c377224427104b8559189f974b689,
        type: 3}
      propertyPath: m_Name
      value: Coin (4)
      objectReference: {fileID: 0}
    - target: {fileID: 6488326630060894308, guid: c68c377224427104b8559189f974b689,
        type: 3}
      propertyPath: m_LocalPosition.x
      value: 5.34174
      objectReference: {fileID: 0}
    - target: {fileID: 6488326630060894308, guid: c68c377224427104b8559189f974b689,
        type: 3}
      propertyPath: m_LocalPosition.y
      value: -4.151395
      objectReference: {fileID: 0}
    - target: {fileID: 6488326630060894308, guid: c68c377224427104b8559189f974b689,
        type: 3}
      propertyPath: m_LocalPosition.z
      value: 20.755754
      objectReference: {fileID: 0}
    - target: {fileID: 6488326630060894308, guid: c68c377224427104b8559189f974b689,
        type: 3}
      propertyPath: m_LocalRotation.x
      value: 0
      objectReference: {fileID: 0}
    - target: {fileID: 6488326630060894308, guid: c68c377224427104b8559189f974b689,
        type: 3}
      propertyPath: m_LocalRotation.y
      value: 0
      objectReference: {fileID: 0}
    - target: {fileID: 6488326630060894308, guid: c68c377224427104b8559189f974b689,
        type: 3}
      propertyPath: m_LocalRotation.z
      value: 0
      objectReference: {fileID: 0}
    - target: {fileID: 6488326630060894308, guid: c68c377224427104b8559189f974b689,
        type: 3}
      propertyPath: m_LocalRotation.w
      value: 1
      objectReference: {fileID: 0}
    - target: {fileID: 6488326630060894308, guid: c68c377224427104b8559189f974b689,
        type: 3}
      propertyPath: m_RootOrder
      value: 10
      objectReference: {fileID: 0}
    - target: {fileID: 6488326630060894308, guid: c68c377224427104b8559189f974b689,
        type: 3}
      propertyPath: m_LocalEulerAnglesHint.x
      value: 0
      objectReference: {fileID: 0}
    - target: {fileID: 6488326630060894308, guid: c68c377224427104b8559189f974b689,
        type: 3}
      propertyPath: m_LocalEulerAnglesHint.y
      value: 0
      objectReference: {fileID: 0}
    - target: {fileID: 6488326630060894308, guid: c68c377224427104b8559189f974b689,
        type: 3}
      propertyPath: m_LocalEulerAnglesHint.z
      value: 0
      objectReference: {fileID: 0}
    m_RemovedComponents: []
  m_SourcePrefab: {fileID: 100100000, guid: c68c377224427104b8559189f974b689, type: 3}
--- !u!1001 &172781001
PrefabInstance:
  m_ObjectHideFlags: 0
  serializedVersion: 2
  m_Modification:
    m_TransformParent: {fileID: 0}
    m_Modifications:
    - target: {fileID: 6488326630060894304, guid: c68c377224427104b8559189f974b689,
        type: 3}
      propertyPath: m_Name
      value: Coin (7)
      objectReference: {fileID: 0}
    - target: {fileID: 6488326630060894308, guid: c68c377224427104b8559189f974b689,
        type: 3}
      propertyPath: m_LocalPosition.x
      value: 20.320833
      objectReference: {fileID: 0}
    - target: {fileID: 6488326630060894308, guid: c68c377224427104b8559189f974b689,
        type: 3}
      propertyPath: m_LocalPosition.y
      value: -4.151395
      objectReference: {fileID: 0}
    - target: {fileID: 6488326630060894308, guid: c68c377224427104b8559189f974b689,
        type: 3}
      propertyPath: m_LocalPosition.z
      value: 21.712542
      objectReference: {fileID: 0}
    - target: {fileID: 6488326630060894308, guid: c68c377224427104b8559189f974b689,
        type: 3}
      propertyPath: m_LocalRotation.x
      value: 0
      objectReference: {fileID: 0}
    - target: {fileID: 6488326630060894308, guid: c68c377224427104b8559189f974b689,
        type: 3}
      propertyPath: m_LocalRotation.y
      value: 0
      objectReference: {fileID: 0}
    - target: {fileID: 6488326630060894308, guid: c68c377224427104b8559189f974b689,
        type: 3}
      propertyPath: m_LocalRotation.z
      value: 0
      objectReference: {fileID: 0}
    - target: {fileID: 6488326630060894308, guid: c68c377224427104b8559189f974b689,
        type: 3}
      propertyPath: m_LocalRotation.w
      value: 1
      objectReference: {fileID: 0}
    - target: {fileID: 6488326630060894308, guid: c68c377224427104b8559189f974b689,
        type: 3}
      propertyPath: m_RootOrder
      value: 7
      objectReference: {fileID: 0}
    - target: {fileID: 6488326630060894308, guid: c68c377224427104b8559189f974b689,
        type: 3}
      propertyPath: m_LocalEulerAnglesHint.x
      value: 0
      objectReference: {fileID: 0}
    - target: {fileID: 6488326630060894308, guid: c68c377224427104b8559189f974b689,
        type: 3}
      propertyPath: m_LocalEulerAnglesHint.y
      value: 0
      objectReference: {fileID: 0}
    - target: {fileID: 6488326630060894308, guid: c68c377224427104b8559189f974b689,
        type: 3}
      propertyPath: m_LocalEulerAnglesHint.z
      value: 0
      objectReference: {fileID: 0}
    m_RemovedComponents: []
  m_SourcePrefab: {fileID: 100100000, guid: c68c377224427104b8559189f974b689, type: 3}
--- !u!1001 &197250972
PrefabInstance:
  m_ObjectHideFlags: 0
  serializedVersion: 2
  m_Modification:
    m_TransformParent: {fileID: 0}
    m_Modifications:
    - target: {fileID: 6488326630060894304, guid: c68c377224427104b8559189f974b689,
        type: 3}
      propertyPath: m_Name
      value: Coin (13)
      objectReference: {fileID: 0}
    - target: {fileID: 6488326630060894308, guid: c68c377224427104b8559189f974b689,
        type: 3}
      propertyPath: m_LocalPosition.x
      value: -1.4187822
      objectReference: {fileID: 0}
    - target: {fileID: 6488326630060894308, guid: c68c377224427104b8559189f974b689,
        type: 3}
      propertyPath: m_LocalPosition.y
      value: -4.151395
      objectReference: {fileID: 0}
    - target: {fileID: 6488326630060894308, guid: c68c377224427104b8559189f974b689,
        type: 3}
      propertyPath: m_LocalPosition.z
      value: 29.126606
      objectReference: {fileID: 0}
    - target: {fileID: 6488326630060894308, guid: c68c377224427104b8559189f974b689,
        type: 3}
      propertyPath: m_LocalRotation.x
      value: 0
      objectReference: {fileID: 0}
    - target: {fileID: 6488326630060894308, guid: c68c377224427104b8559189f974b689,
        type: 3}
      propertyPath: m_LocalRotation.y
      value: 0
      objectReference: {fileID: 0}
    - target: {fileID: 6488326630060894308, guid: c68c377224427104b8559189f974b689,
        type: 3}
      propertyPath: m_LocalRotation.z
      value: 0
      objectReference: {fileID: 0}
    - target: {fileID: 6488326630060894308, guid: c68c377224427104b8559189f974b689,
        type: 3}
      propertyPath: m_LocalRotation.w
      value: 1
      objectReference: {fileID: 0}
    - target: {fileID: 6488326630060894308, guid: c68c377224427104b8559189f974b689,
        type: 3}
      propertyPath: m_RootOrder
      value: 1
      objectReference: {fileID: 0}
    - target: {fileID: 6488326630060894308, guid: c68c377224427104b8559189f974b689,
        type: 3}
      propertyPath: m_LocalEulerAnglesHint.x
      value: 0
      objectReference: {fileID: 0}
    - target: {fileID: 6488326630060894308, guid: c68c377224427104b8559189f974b689,
        type: 3}
      propertyPath: m_LocalEulerAnglesHint.y
      value: 0
      objectReference: {fileID: 0}
    - target: {fileID: 6488326630060894308, guid: c68c377224427104b8559189f974b689,
        type: 3}
      propertyPath: m_LocalEulerAnglesHint.z
      value: 0
      objectReference: {fileID: 0}
    m_RemovedComponents: []
  m_SourcePrefab: {fileID: 100100000, guid: c68c377224427104b8559189f974b689, type: 3}
--- !u!1001 &398199516
PrefabInstance:
  m_ObjectHideFlags: 0
  serializedVersion: 2
  m_Modification:
    m_TransformParent: {fileID: 0}
    m_Modifications:
    - target: {fileID: 6488326630060894304, guid: c68c377224427104b8559189f974b689,
        type: 3}
      propertyPath: m_Name
      value: Coin (12)
      objectReference: {fileID: 0}
    - target: {fileID: 6488326630060894308, guid: c68c377224427104b8559189f974b689,
        type: 3}
      propertyPath: m_LocalPosition.x
      value: -0.20055652
      objectReference: {fileID: 0}
    - target: {fileID: 6488326630060894308, guid: c68c377224427104b8559189f974b689,
        type: 3}
      propertyPath: m_LocalPosition.y
      value: -4.151395
      objectReference: {fileID: 0}
    - target: {fileID: 6488326630060894308, guid: c68c377224427104b8559189f974b689,
        type: 3}
      propertyPath: m_LocalPosition.z
      value: 17.865194
      objectReference: {fileID: 0}
    - target: {fileID: 6488326630060894308, guid: c68c377224427104b8559189f974b689,
        type: 3}
      propertyPath: m_LocalRotation.x
      value: 0
      objectReference: {fileID: 0}
    - target: {fileID: 6488326630060894308, guid: c68c377224427104b8559189f974b689,
        type: 3}
      propertyPath: m_LocalRotation.y
      value: 0
      objectReference: {fileID: 0}
    - target: {fileID: 6488326630060894308, guid: c68c377224427104b8559189f974b689,
        type: 3}
      propertyPath: m_LocalRotation.z
      value: 0
      objectReference: {fileID: 0}
    - target: {fileID: 6488326630060894308, guid: c68c377224427104b8559189f974b689,
        type: 3}
      propertyPath: m_LocalRotation.w
      value: 1
      objectReference: {fileID: 0}
    - target: {fileID: 6488326630060894308, guid: c68c377224427104b8559189f974b689,
        type: 3}
      propertyPath: m_RootOrder
      value: 2
      objectReference: {fileID: 0}
    - target: {fileID: 6488326630060894308, guid: c68c377224427104b8559189f974b689,
        type: 3}
      propertyPath: m_LocalEulerAnglesHint.x
      value: 0
      objectReference: {fileID: 0}
    - target: {fileID: 6488326630060894308, guid: c68c377224427104b8559189f974b689,
        type: 3}
      propertyPath: m_LocalEulerAnglesHint.y
      value: 0
      objectReference: {fileID: 0}
    - target: {fileID: 6488326630060894308, guid: c68c377224427104b8559189f974b689,
        type: 3}
      propertyPath: m_LocalEulerAnglesHint.z
      value: 0
      objectReference: {fileID: 0}
    m_RemovedComponents: []
  m_SourcePrefab: {fileID: 100100000, guid: c68c377224427104b8559189f974b689, type: 3}
--- !u!1001 &509056734
PrefabInstance:
  m_ObjectHideFlags: 0
  serializedVersion: 2
  m_Modification:
    m_TransformParent: {fileID: 0}
    m_Modifications:
    - target: {fileID: 6488326630060894304, guid: c68c377224427104b8559189f974b689,
        type: 3}
      propertyPath: m_Name
      value: Coin (5)
      objectReference: {fileID: 0}
    - target: {fileID: 6488326630060894308, guid: c68c377224427104b8559189f974b689,
        type: 3}
      propertyPath: m_LocalPosition.x
      value: 10.554096
      objectReference: {fileID: 0}
    - target: {fileID: 6488326630060894308, guid: c68c377224427104b8559189f974b689,
        type: 3}
      propertyPath: m_LocalPosition.y
      value: -4.151395
      objectReference: {fileID: 0}
    - target: {fileID: 6488326630060894308, guid: c68c377224427104b8559189f974b689,
        type: 3}
      propertyPath: m_LocalPosition.z
      value: 17.86536
      objectReference: {fileID: 0}
    - target: {fileID: 6488326630060894308, guid: c68c377224427104b8559189f974b689,
        type: 3}
      propertyPath: m_LocalRotation.x
      value: 0
      objectReference: {fileID: 0}
    - target: {fileID: 6488326630060894308, guid: c68c377224427104b8559189f974b689,
        type: 3}
      propertyPath: m_LocalRotation.y
      value: 0
      objectReference: {fileID: 0}
    - target: {fileID: 6488326630060894308, guid: c68c377224427104b8559189f974b689,
        type: 3}
      propertyPath: m_LocalRotation.z
      value: 0
      objectReference: {fileID: 0}
    - target: {fileID: 6488326630060894308, guid: c68c377224427104b8559189f974b689,
        type: 3}
      propertyPath: m_LocalRotation.w
      value: 1
      objectReference: {fileID: 0}
    - target: {fileID: 6488326630060894308, guid: c68c377224427104b8559189f974b689,
        type: 3}
      propertyPath: m_RootOrder
      value: 9
      objectReference: {fileID: 0}
    - target: {fileID: 6488326630060894308, guid: c68c377224427104b8559189f974b689,
        type: 3}
      propertyPath: m_LocalEulerAnglesHint.x
      value: 0
      objectReference: {fileID: 0}
    - target: {fileID: 6488326630060894308, guid: c68c377224427104b8559189f974b689,
        type: 3}
      propertyPath: m_LocalEulerAnglesHint.y
      value: 0
      objectReference: {fileID: 0}
    - target: {fileID: 6488326630060894308, guid: c68c377224427104b8559189f974b689,
        type: 3}
      propertyPath: m_LocalEulerAnglesHint.z
      value: 0
      objectReference: {fileID: 0}
    m_RemovedComponents: []
  m_SourcePrefab: {fileID: 100100000, guid: c68c377224427104b8559189f974b689, type: 3}
--- !u!1001 &585034439
PrefabInstance:
  m_ObjectHideFlags: 0
  serializedVersion: 2
  m_Modification:
    m_TransformParent: {fileID: 0}
    m_Modifications:
    - target: {fileID: 6488326630060894304, guid: c68c377224427104b8559189f974b689,
        type: 3}
      propertyPath: m_Name
      value: Coin (6)
      objectReference: {fileID: 0}
    - target: {fileID: 6488326630060894308, guid: c68c377224427104b8559189f974b689,
        type: 3}
      propertyPath: m_LocalPosition.x
      value: 19.432312
      objectReference: {fileID: 0}
    - target: {fileID: 6488326630060894308, guid: c68c377224427104b8559189f974b689,
        type: 3}
      propertyPath: m_LocalPosition.y
      value: -4.151395
      objectReference: {fileID: 0}
    - target: {fileID: 6488326630060894308, guid: c68c377224427104b8559189f974b689,
        type: 3}
      propertyPath: m_LocalPosition.z
      value: 12.787438
      objectReference: {fileID: 0}
    - target: {fileID: 6488326630060894308, guid: c68c377224427104b8559189f974b689,
        type: 3}
      propertyPath: m_LocalRotation.x
      value: 0
      objectReference: {fileID: 0}
    - target: {fileID: 6488326630060894308, guid: c68c377224427104b8559189f974b689,
        type: 3}
      propertyPath: m_LocalRotation.y
      value: 0
      objectReference: {fileID: 0}
    - target: {fileID: 6488326630060894308, guid: c68c377224427104b8559189f974b689,
        type: 3}
      propertyPath: m_LocalRotation.z
      value: 0
      objectReference: {fileID: 0}
    - target: {fileID: 6488326630060894308, guid: c68c377224427104b8559189f974b689,
        type: 3}
      propertyPath: m_LocalRotation.w
      value: 1
      objectReference: {fileID: 0}
    - target: {fileID: 6488326630060894308, guid: c68c377224427104b8559189f974b689,
        type: 3}
      propertyPath: m_RootOrder
      value: 8
      objectReference: {fileID: 0}
    - target: {fileID: 6488326630060894308, guid: c68c377224427104b8559189f974b689,
        type: 3}
      propertyPath: m_LocalEulerAnglesHint.x
      value: 0
      objectReference: {fileID: 0}
    - target: {fileID: 6488326630060894308, guid: c68c377224427104b8559189f974b689,
        type: 3}
      propertyPath: m_LocalEulerAnglesHint.y
      value: 0
      objectReference: {fileID: 0}
    - target: {fileID: 6488326630060894308, guid: c68c377224427104b8559189f974b689,
        type: 3}
      propertyPath: m_LocalEulerAnglesHint.z
      value: 0
      objectReference: {fileID: 0}
    m_RemovedComponents: []
  m_SourcePrefab: {fileID: 100100000, guid: c68c377224427104b8559189f974b689, type: 3}
--- !u!1 &654807713
GameObject:
  m_ObjectHideFlags: 0
  m_CorrespondingSourceObject: {fileID: 0}
  m_PrefabInstance: {fileID: 0}
  m_PrefabAsset: {fileID: 0}
  serializedVersion: 6
  m_Component:
  - component: {fileID: 654807715}
  - component: {fileID: 654807714}
  m_Layer: 0
  m_Name: Directional Light
  m_TagString: Untagged
  m_Icon: {fileID: 0}
  m_NavMeshLayer: 0
  m_StaticEditorFlags: 0
  m_IsActive: 1
--- !u!108 &654807714
Light:
  m_ObjectHideFlags: 0
  m_CorrespondingSourceObject: {fileID: 0}
  m_PrefabInstance: {fileID: 0}
  m_PrefabAsset: {fileID: 0}
  m_GameObject: {fileID: 654807713}
  m_Enabled: 1
  serializedVersion: 10
  m_Type: 1
  m_Shape: 0
  m_Color: {r: 1, g: 0.95686275, b: 0.8392157, a: 1}
  m_Intensity: 1
  m_Range: 10
  m_SpotAngle: 30
  m_InnerSpotAngle: 21.80208
  m_CookieSize: 10
  m_Shadows:
    m_Type: 2
    m_Resolution: -1
    m_CustomResolution: -1
    m_Strength: 1
    m_Bias: 0.05
    m_NormalBias: 0.4
    m_NearPlane: 0.2
    m_CullingMatrixOverride:
      e00: 1
      e01: 0
      e02: 0
      e03: 0
      e10: 0
      e11: 1
      e12: 0
      e13: 0
      e20: 0
      e21: 0
      e22: 1
      e23: 0
      e30: 0
      e31: 0
      e32: 0
      e33: 1
    m_UseCullingMatrixOverride: 0
  m_Cookie: {fileID: 0}
  m_DrawHalo: 0
  m_Flare: {fileID: 0}
  m_RenderMode: 0
  m_CullingMask:
    serializedVersion: 2
    m_Bits: 4294967295
  m_RenderingLayerMask: 1
  m_Lightmapping: 4
  m_LightShadowCasterMode: 0
  m_AreaSize: {x: 1, y: 1}
  m_BounceIntensity: 1
  m_ColorTemperature: 6570
  m_UseColorTemperature: 0
  m_BoundingSphereOverride: {x: 0, y: 0, z: 0, w: 0}
  m_UseBoundingSphereOverride: 0
  m_ShadowRadius: 0
  m_ShadowAngle: 0
--- !u!4 &654807715
Transform:
  m_ObjectHideFlags: 0
  m_CorrespondingSourceObject: {fileID: 0}
  m_PrefabInstance: {fileID: 0}
  m_PrefabAsset: {fileID: 0}
  m_GameObject: {fileID: 654807713}
  m_LocalRotation: {x: 0.40821788, y: -0.23456968, z: 0.10938163, w: 0.8754261}
  m_LocalPosition: {x: 0, y: 3, z: 0}
  m_LocalScale: {x: 1, y: 1, z: 1}
  m_Children: []
  m_Father: {fileID: 0}
  m_RootOrder: 15
  m_LocalEulerAnglesHint: {x: 50, y: -30, z: 0}
--- !u!1 &962602591
GameObject:
  m_ObjectHideFlags: 0
  m_CorrespondingSourceObject: {fileID: 0}
  m_PrefabInstance: {fileID: 0}
  m_PrefabAsset: {fileID: 0}
  serializedVersion: 6
  m_Component:
  - component: {fileID: 962602595}
  - component: {fileID: 962602594}
  - component: {fileID: 962602593}
  - component: {fileID: 962602592}
  m_Layer: 0
  m_Name: Floor
  m_TagString: Untagged
  m_Icon: {fileID: 0}
  m_NavMeshLayer: 0
  m_StaticEditorFlags: 0
  m_IsActive: 1
--- !u!65 &962602592
BoxCollider:
  m_ObjectHideFlags: 0
  m_CorrespondingSourceObject: {fileID: 0}
  m_PrefabInstance: {fileID: 0}
  m_PrefabAsset: {fileID: 0}
  m_GameObject: {fileID: 962602591}
  m_Material: {fileID: 0}
  m_IsTrigger: 0
  m_Enabled: 1
  serializedVersion: 2
  m_Size: {x: 1, y: 1, z: 1}
  m_Center: {x: 0, y: 0, z: 0}
--- !u!23 &962602593
MeshRenderer:
  m_ObjectHideFlags: 0
  m_CorrespondingSourceObject: {fileID: 0}
  m_PrefabInstance: {fileID: 0}
  m_PrefabAsset: {fileID: 0}
  m_GameObject: {fileID: 962602591}
  m_Enabled: 1
  m_CastShadows: 1
  m_ReceiveShadows: 1
  m_DynamicOccludee: 1
  m_MotionVectors: 1
  m_LightProbeUsage: 1
  m_ReflectionProbeUsage: 1
  m_RayTracingMode: 2
  m_RenderingLayerMask: 1
  m_RendererPriority: 0
  m_Materials:
  - {fileID: 10303, guid: 0000000000000000f000000000000000, type: 0}
  m_StaticBatchInfo:
    firstSubMesh: 0
    subMeshCount: 0
  m_StaticBatchRoot: {fileID: 0}
  m_ProbeAnchor: {fileID: 0}
  m_LightProbeVolumeOverride: {fileID: 0}
  m_ScaleInLightmap: 1
  m_ReceiveGI: 1
  m_PreserveUVs: 0
  m_IgnoreNormalsForChartDetection: 0
  m_ImportantGI: 0
  m_StitchLightmapSeams: 1
  m_SelectedEditorRenderState: 3
  m_MinimumChartSize: 4
  m_AutoUVMaxDistance: 0.5
  m_AutoUVMaxAngle: 89
  m_LightmapParameters: {fileID: 0}
  m_SortingLayerID: 0
  m_SortingLayer: 0
  m_SortingOrder: 0
--- !u!33 &962602594
MeshFilter:
  m_ObjectHideFlags: 0
  m_CorrespondingSourceObject: {fileID: 0}
  m_PrefabInstance: {fileID: 0}
  m_PrefabAsset: {fileID: 0}
  m_GameObject: {fileID: 962602591}
  m_Mesh: {fileID: 10202, guid: 0000000000000000e000000000000000, type: 0}
--- !u!4 &962602595
Transform:
  m_ObjectHideFlags: 0
  m_CorrespondingSourceObject: {fileID: 0}
  m_PrefabInstance: {fileID: 0}
  m_PrefabAsset: {fileID: 0}
  m_GameObject: {fileID: 962602591}
  m_LocalRotation: {x: 0, y: 0, z: 0, w: 1}
  m_LocalPosition: {x: 2.00732, y: -5.151395, z: 26.4}
  m_LocalScale: {x: 53.17041, y: 1, z: 48.399}
  m_Children: []
  m_Father: {fileID: 0}
  m_RootOrder: 17
  m_LocalEulerAnglesHint: {x: 0, y: 0, z: 0}
--- !u!1001 &1112828918
PrefabInstance:
  m_ObjectHideFlags: 0
  serializedVersion: 2
  m_Modification:
    m_TransformParent: {fileID: 0}
    m_Modifications:
    - target: {fileID: 6488326630060894304, guid: c68c377224427104b8559189f974b689,
        type: 3}
      propertyPath: m_Name
      value: Coin (11)
      objectReference: {fileID: 0}
    - target: {fileID: 6488326630060894308, guid: c68c377224427104b8559189f974b689,
        type: 3}
      propertyPath: m_LocalPosition.x
      value: 6.1610694
      objectReference: {fileID: 0}
    - target: {fileID: 6488326630060894308, guid: c68c377224427104b8559189f974b689,
        type: 3}
      propertyPath: m_LocalPosition.y
      value: -4.151395
      objectReference: {fileID: 0}
    - target: {fileID: 6488326630060894308, guid: c68c377224427104b8559189f974b689,
        type: 3}
      propertyPath: m_LocalPosition.z
      value: 6.546665
      objectReference: {fileID: 0}
    - target: {fileID: 6488326630060894308, guid: c68c377224427104b8559189f974b689,
        type: 3}
      propertyPath: m_LocalRotation.x
      value: 0
      objectReference: {fileID: 0}
    - target: {fileID: 6488326630060894308, guid: c68c377224427104b8559189f974b689,
        type: 3}
      propertyPath: m_LocalRotation.y
      value: 0
      objectReference: {fileID: 0}
    - target: {fileID: 6488326630060894308, guid: c68c377224427104b8559189f974b689,
        type: 3}
      propertyPath: m_LocalRotation.z
      value: 0
      objectReference: {fileID: 0}
    - target: {fileID: 6488326630060894308, guid: c68c377224427104b8559189f974b689,
        type: 3}
      propertyPath: m_LocalRotation.w
      value: 1
      objectReference: {fileID: 0}
    - target: {fileID: 6488326630060894308, guid: c68c377224427104b8559189f974b689,
        type: 3}
      propertyPath: m_RootOrder
      value: 3
      objectReference: {fileID: 0}
    - target: {fileID: 6488326630060894308, guid: c68c377224427104b8559189f974b689,
        type: 3}
      propertyPath: m_LocalEulerAnglesHint.x
      value: 0
      objectReference: {fileID: 0}
    - target: {fileID: 6488326630060894308, guid: c68c377224427104b8559189f974b689,
        type: 3}
      propertyPath: m_LocalEulerAnglesHint.y
      value: 0
      objectReference: {fileID: 0}
    - target: {fileID: 6488326630060894308, guid: c68c377224427104b8559189f974b689,
        type: 3}
      propertyPath: m_LocalEulerAnglesHint.z
      value: 0
      objectReference: {fileID: 0}
    m_RemovedComponents: []
  m_SourcePrefab: {fileID: 100100000, guid: c68c377224427104b8559189f974b689, type: 3}
--- !u!1001 &1272381019
PrefabInstance:
  m_ObjectHideFlags: 0
  serializedVersion: 2
  m_Modification:
    m_TransformParent: {fileID: 0}
    m_Modifications:
    - target: {fileID: 6488326630060894304, guid: c68c377224427104b8559189f974b689,
        type: 3}
      propertyPath: m_Name
      value: Coin (2)
      objectReference: {fileID: 0}
    - target: {fileID: 6488326630060894308, guid: c68c377224427104b8559189f974b689,
        type: 3}
      propertyPath: m_LocalPosition.x
      value: 15.184069
      objectReference: {fileID: 0}
    - target: {fileID: 6488326630060894308, guid: c68c377224427104b8559189f974b689,
        type: 3}
      propertyPath: m_LocalPosition.y
      value: -4.151395
      objectReference: {fileID: 0}
    - target: {fileID: 6488326630060894308, guid: c68c377224427104b8559189f974b689,
        type: 3}
      propertyPath: m_LocalPosition.z
      value: 22.977467
      objectReference: {fileID: 0}
    - target: {fileID: 6488326630060894308, guid: c68c377224427104b8559189f974b689,
        type: 3}
      propertyPath: m_LocalRotation.x
      value: 0
      objectReference: {fileID: 0}
    - target: {fileID: 6488326630060894308, guid: c68c377224427104b8559189f974b689,
        type: 3}
      propertyPath: m_LocalRotation.y
      value: 0
      objectReference: {fileID: 0}
    - target: {fileID: 6488326630060894308, guid: c68c377224427104b8559189f974b689,
        type: 3}
      propertyPath: m_LocalRotation.z
      value: 0
      objectReference: {fileID: 0}
    - target: {fileID: 6488326630060894308, guid: c68c377224427104b8559189f974b689,
        type: 3}
      propertyPath: m_LocalRotation.w
      value: 1
      objectReference: {fileID: 0}
    - target: {fileID: 6488326630060894308, guid: c68c377224427104b8559189f974b689,
        type: 3}
      propertyPath: m_RootOrder
      value: 12
      objectReference: {fileID: 0}
    - target: {fileID: 6488326630060894308, guid: c68c377224427104b8559189f974b689,
        type: 3}
      propertyPath: m_LocalEulerAnglesHint.x
      value: 0
      objectReference: {fileID: 0}
    - target: {fileID: 6488326630060894308, guid: c68c377224427104b8559189f974b689,
        type: 3}
      propertyPath: m_LocalEulerAnglesHint.y
      value: 0
      objectReference: {fileID: 0}
    - target: {fileID: 6488326630060894308, guid: c68c377224427104b8559189f974b689,
        type: 3}
      propertyPath: m_LocalEulerAnglesHint.z
      value: 0
      objectReference: {fileID: 0}
    m_RemovedComponents: []
  m_SourcePrefab: {fileID: 100100000, guid: c68c377224427104b8559189f974b689, type: 3}
--- !u!1001 &1285677879
PrefabInstance:
  m_ObjectHideFlags: 0
  serializedVersion: 2
  m_Modification:
    m_TransformParent: {fileID: 0}
    m_Modifications:
    - target: {fileID: 6488326630060894304, guid: c68c377224427104b8559189f974b689,
        type: 3}
      propertyPath: m_Name
      value: Coin (9)
      objectReference: {fileID: 0}
    - target: {fileID: 6488326630060894308, guid: c68c377224427104b8559189f974b689,
        type: 3}
      propertyPath: m_LocalPosition.x
      value: 19.138325
      objectReference: {fileID: 0}
    - target: {fileID: 6488326630060894308, guid: c68c377224427104b8559189f974b689,
        type: 3}
      propertyPath: m_LocalPosition.y
      value: -4.151395
      objectReference: {fileID: 0}
    - target: {fileID: 6488326630060894308, guid: c68c377224427104b8559189f974b689,
        type: 3}
      propertyPath: m_LocalPosition.z
      value: 30.570286
      objectReference: {fileID: 0}
    - target: {fileID: 6488326630060894308, guid: c68c377224427104b8559189f974b689,
        type: 3}
      propertyPath: m_LocalRotation.x
      value: 0
      objectReference: {fileID: 0}
    - target: {fileID: 6488326630060894308, guid: c68c377224427104b8559189f974b689,
        type: 3}
      propertyPath: m_LocalRotation.y
      value: 0
      objectReference: {fileID: 0}
    - target: {fileID: 6488326630060894308, guid: c68c377224427104b8559189f974b689,
        type: 3}
      propertyPath: m_LocalRotation.z
      value: 0
      objectReference: {fileID: 0}
    - target: {fileID: 6488326630060894308, guid: c68c377224427104b8559189f974b689,
        type: 3}
      propertyPath: m_LocalRotation.w
      value: 1
      objectReference: {fileID: 0}
    - target: {fileID: 6488326630060894308, guid: c68c377224427104b8559189f974b689,
        type: 3}
      propertyPath: m_RootOrder
      value: 5
      objectReference: {fileID: 0}
    - target: {fileID: 6488326630060894308, guid: c68c377224427104b8559189f974b689,
        type: 3}
      propertyPath: m_LocalEulerAnglesHint.x
      value: 0
      objectReference: {fileID: 0}
    - target: {fileID: 6488326630060894308, guid: c68c377224427104b8559189f974b689,
        type: 3}
      propertyPath: m_LocalEulerAnglesHint.y
      value: 0
      objectReference: {fileID: 0}
    - target: {fileID: 6488326630060894308, guid: c68c377224427104b8559189f974b689,
        type: 3}
      propertyPath: m_LocalEulerAnglesHint.z
      value: 0
      objectReference: {fileID: 0}
    m_RemovedComponents: []
  m_SourcePrefab: {fileID: 100100000, guid: c68c377224427104b8559189f974b689, type: 3}
--- !u!1001 &1884482948
PrefabInstance:
  m_ObjectHideFlags: 0
  serializedVersion: 2
  m_Modification:
    m_TransformParent: {fileID: 0}
    m_Modifications:
    - target: {fileID: 6488326630060894304, guid: c68c377224427104b8559189f974b689,
        type: 3}
      propertyPath: m_Name
      value: Coin (3)
      objectReference: {fileID: 0}
    - target: {fileID: 6488326630060894308, guid: c68c377224427104b8559189f974b689,
        type: 3}
      propertyPath: m_LocalPosition.x
      value: 14.151775
      objectReference: {fileID: 0}
    - target: {fileID: 6488326630060894308, guid: c68c377224427104b8559189f974b689,
        type: 3}
      propertyPath: m_LocalPosition.y
      value: -4.151395
      objectReference: {fileID: 0}
    - target: {fileID: 6488326630060894308, guid: c68c377224427104b8559189f974b689,
        type: 3}
      propertyPath: m_LocalPosition.z
      value: 15.507501
      objectReference: {fileID: 0}
    - target: {fileID: 6488326630060894308, guid: c68c377224427104b8559189f974b689,
        type: 3}
      propertyPath: m_LocalRotation.x
      value: 0
      objectReference: {fileID: 0}
    - target: {fileID: 6488326630060894308, guid: c68c377224427104b8559189f974b689,
        type: 3}
      propertyPath: m_LocalRotation.y
      value: 0
      objectReference: {fileID: 0}
    - target: {fileID: 6488326630060894308, guid: c68c377224427104b8559189f974b689,
        type: 3}
      propertyPath: m_LocalRotation.z
      value: 0
      objectReference: {fileID: 0}
    - target: {fileID: 6488326630060894308, guid: c68c377224427104b8559189f974b689,
        type: 3}
      propertyPath: m_LocalRotation.w
      value: 1
      objectReference: {fileID: 0}
    - target: {fileID: 6488326630060894308, guid: c68c377224427104b8559189f974b689,
        type: 3}
      propertyPath: m_RootOrder
      value: 11
      objectReference: {fileID: 0}
    - target: {fileID: 6488326630060894308, guid: c68c377224427104b8559189f974b689,
        type: 3}
      propertyPath: m_LocalEulerAnglesHint.x
      value: 0
      objectReference: {fileID: 0}
    - target: {fileID: 6488326630060894308, guid: c68c377224427104b8559189f974b689,
        type: 3}
      propertyPath: m_LocalEulerAnglesHint.y
      value: 0
      objectReference: {fileID: 0}
    - target: {fileID: 6488326630060894308, guid: c68c377224427104b8559189f974b689,
        type: 3}
      propertyPath: m_LocalEulerAnglesHint.z
      value: 0
      objectReference: {fileID: 0}
    m_RemovedComponents: []
  m_SourcePrefab: {fileID: 100100000, guid: c68c377224427104b8559189f974b689, type: 3}
--- !u!1001 &1908179203
PrefabInstance:
  m_ObjectHideFlags: 0
  serializedVersion: 2
  m_Modification:
    m_TransformParent: {fileID: 0}
    m_Modifications:
    - target: {fileID: 6488326630060894304, guid: c68c377224427104b8559189f974b689,
        type: 3}
      propertyPath: m_Name
      value: Coin (1)
      objectReference: {fileID: 0}
    - target: {fileID: 6488326630060894308, guid: c68c377224427104b8559189f974b689,
        type: 3}
      propertyPath: m_LocalPosition.x
      value: 15.003796
      objectReference: {fileID: 0}
    - target: {fileID: 6488326630060894308, guid: c68c377224427104b8559189f974b689,
        type: 3}
      propertyPath: m_LocalPosition.y
      value: -4.151395
      objectReference: {fileID: 0}
    - target: {fileID: 6488326630060894308, guid: c68c377224427104b8559189f974b689,
        type: 3}
      propertyPath: m_LocalPosition.z
      value: 33.20567
      objectReference: {fileID: 0}
    - target: {fileID: 6488326630060894308, guid: c68c377224427104b8559189f974b689,
        type: 3}
      propertyPath: m_LocalRotation.x
      value: 0
      objectReference: {fileID: 0}
    - target: {fileID: 6488326630060894308, guid: c68c377224427104b8559189f974b689,
        type: 3}
      propertyPath: m_LocalRotation.y
      value: 0
      objectReference: {fileID: 0}
    - target: {fileID: 6488326630060894308, guid: c68c377224427104b8559189f974b689,
        type: 3}
      propertyPath: m_LocalRotation.z
      value: 0
      objectReference: {fileID: 0}
    - target: {fileID: 6488326630060894308, guid: c68c377224427104b8559189f974b689,
        type: 3}
      propertyPath: m_LocalRotation.w
      value: 1
      objectReference: {fileID: 0}
    - target: {fileID: 6488326630060894308, guid: c68c377224427104b8559189f974b689,
        type: 3}
      propertyPath: m_RootOrder
      value: 13
      objectReference: {fileID: 0}
    - target: {fileID: 6488326630060894308, guid: c68c377224427104b8559189f974b689,
        type: 3}
      propertyPath: m_LocalEulerAnglesHint.x
      value: 0
      objectReference: {fileID: 0}
    - target: {fileID: 6488326630060894308, guid: c68c377224427104b8559189f974b689,
        type: 3}
      propertyPath: m_LocalEulerAnglesHint.y
      value: 0
      objectReference: {fileID: 0}
    - target: {fileID: 6488326630060894308, guid: c68c377224427104b8559189f974b689,
        type: 3}
      propertyPath: m_LocalEulerAnglesHint.z
      value: 0
      objectReference: {fileID: 0}
    m_RemovedComponents: []
  m_SourcePrefab: {fileID: 100100000, guid: c68c377224427104b8559189f974b689, type: 3}
--- !u!1001 &1917449504
PrefabInstance:
  m_ObjectHideFlags: 0
  serializedVersion: 2
  m_Modification:
    m_TransformParent: {fileID: 0}
    m_Modifications:
    - target: {fileID: 6488326630060894304, guid: c68c377224427104b8559189f974b689,
        type: 3}
      propertyPath: m_Name
      value: Coin (8)
      objectReference: {fileID: 0}
    - target: {fileID: 6488326630060894308, guid: c68c377224427104b8559189f974b689,
        type: 3}
      propertyPath: m_LocalPosition.x
      value: 10.343834
      objectReference: {fileID: 0}
    - target: {fileID: 6488326630060894308, guid: c68c377224427104b8559189f974b689,
        type: 3}
      propertyPath: m_LocalPosition.y
      value: -4.151395
      objectReference: {fileID: 0}
    - target: {fileID: 6488326630060894308, guid: c68c377224427104b8559189f974b689,
        type: 3}
      propertyPath: m_LocalPosition.z
      value: 26.502266
      objectReference: {fileID: 0}
    - target: {fileID: 6488326630060894308, guid: c68c377224427104b8559189f974b689,
        type: 3}
      propertyPath: m_LocalRotation.x
      value: 0
      objectReference: {fileID: 0}
    - target: {fileID: 6488326630060894308, guid: c68c377224427104b8559189f974b689,
        type: 3}
      propertyPath: m_LocalRotation.y
      value: 0
      objectReference: {fileID: 0}
    - target: {fileID: 6488326630060894308, guid: c68c377224427104b8559189f974b689,
        type: 3}
      propertyPath: m_LocalRotation.z
      value: 0
      objectReference: {fileID: 0}
    - target: {fileID: 6488326630060894308, guid: c68c377224427104b8559189f974b689,
        type: 3}
      propertyPath: m_LocalRotation.w
      value: 1
      objectReference: {fileID: 0}
    - target: {fileID: 6488326630060894308, guid: c68c377224427104b8559189f974b689,
        type: 3}
      propertyPath: m_RootOrder
      value: 6
      objectReference: {fileID: 0}
    - target: {fileID: 6488326630060894308, guid: c68c377224427104b8559189f974b689,
        type: 3}
      propertyPath: m_LocalEulerAnglesHint.x
      value: 0
      objectReference: {fileID: 0}
    - target: {fileID: 6488326630060894308, guid: c68c377224427104b8559189f974b689,
        type: 3}
      propertyPath: m_LocalEulerAnglesHint.y
      value: 0
      objectReference: {fileID: 0}
    - target: {fileID: 6488326630060894308, guid: c68c377224427104b8559189f974b689,
        type: 3}
      propertyPath: m_LocalEulerAnglesHint.z
      value: 0
      objectReference: {fileID: 0}
    m_RemovedComponents: []
  m_SourcePrefab: {fileID: 100100000, guid: c68c377224427104b8559189f974b689, type: 3}
--- !u!1001 &1932836863
PrefabInstance:
  m_ObjectHideFlags: 0
  serializedVersion: 2
  m_Modification:
    m_TransformParent: {fileID: 0}
    m_Modifications:
    - target: {fileID: 6488326630060894304, guid: c68c377224427104b8559189f974b689,
        type: 3}
      propertyPath: m_Name
      value: Coin (10)
      objectReference: {fileID: 0}
    - target: {fileID: 6488326630060894308, guid: c68c377224427104b8559189f974b689,
        type: 3}
      propertyPath: m_LocalPosition.x
      value: 8.009775
      objectReference: {fileID: 0}
    - target: {fileID: 6488326630060894308, guid: c68c377224427104b8559189f974b689,
        type: 3}
      propertyPath: m_LocalPosition.y
      value: -4.151395
      objectReference: {fileID: 0}
    - target: {fileID: 6488326630060894308, guid: c68c377224427104b8559189f974b689,
        type: 3}
      propertyPath: m_LocalPosition.z
      value: 36.1361
      objectReference: {fileID: 0}
    - target: {fileID: 6488326630060894308, guid: c68c377224427104b8559189f974b689,
        type: 3}
      propertyPath: m_LocalRotation.x
      value: 0
      objectReference: {fileID: 0}
    - target: {fileID: 6488326630060894308, guid: c68c377224427104b8559189f974b689,
        type: 3}
      propertyPath: m_LocalRotation.y
      value: 0
      objectReference: {fileID: 0}
    - target: {fileID: 6488326630060894308, guid: c68c377224427104b8559189f974b689,
        type: 3}
      propertyPath: m_LocalRotation.z
      value: 0
      objectReference: {fileID: 0}
    - target: {fileID: 6488326630060894308, guid: c68c377224427104b8559189f974b689,
        type: 3}
      propertyPath: m_LocalRotation.w
      value: 1
      objectReference: {fileID: 0}
    - target: {fileID: 6488326630060894308, guid: c68c377224427104b8559189f974b689,
        type: 3}
      propertyPath: m_RootOrder
      value: 4
      objectReference: {fileID: 0}
    - target: {fileID: 6488326630060894308, guid: c68c377224427104b8559189f974b689,
        type: 3}
      propertyPath: m_LocalEulerAnglesHint.x
      value: 0
      objectReference: {fileID: 0}
    - target: {fileID: 6488326630060894308, guid: c68c377224427104b8559189f974b689,
        type: 3}
      propertyPath: m_LocalEulerAnglesHint.y
      value: 0
      objectReference: {fileID: 0}
    - target: {fileID: 6488326630060894308, guid: c68c377224427104b8559189f974b689,
        type: 3}
      propertyPath: m_LocalEulerAnglesHint.z
      value: 0
      objectReference: {fileID: 0}
    m_RemovedComponents: []
  m_SourcePrefab: {fileID: 100100000, guid: c68c377224427104b8559189f974b689, type: 3}
--- !u!1001 &1146471712034626115
PrefabInstance:
  m_ObjectHideFlags: 0
  serializedVersion: 2
  m_Modification:
    m_TransformParent: {fileID: 0}
    m_Modifications:
    - target: {fileID: 1146471713010659390, guid: 5655620c004ad2441b65ff5259ce041d,
        type: 3}
      propertyPath: m_Name
      value: HorsePowerUp
      objectReference: {fileID: 0}
    - target: {fileID: 1146471713010659522, guid: 5655620c004ad2441b65ff5259ce041d,
        type: 3}
      propertyPath: m_LocalPosition.x
      value: -5.2
      objectReference: {fileID: 0}
    - target: {fileID: 1146471713010659522, guid: 5655620c004ad2441b65ff5259ce041d,
        type: 3}
      propertyPath: m_LocalPosition.y
      value: -3.13
      objectReference: {fileID: 0}
    - target: {fileID: 1146471713010659522, guid: 5655620c004ad2441b65ff5259ce041d,
        type: 3}
      propertyPath: m_LocalPosition.z
      value: 10.25
      objectReference: {fileID: 0}
    - target: {fileID: 1146471713010659522, guid: 5655620c004ad2441b65ff5259ce041d,
        type: 3}
      propertyPath: m_LocalRotation.x
      value: 0
      objectReference: {fileID: 0}
    - target: {fileID: 1146471713010659522, guid: 5655620c004ad2441b65ff5259ce041d,
        type: 3}
      propertyPath: m_LocalRotation.y
      value: 0
      objectReference: {fileID: 0}
    - target: {fileID: 1146471713010659522, guid: 5655620c004ad2441b65ff5259ce041d,
        type: 3}
      propertyPath: m_LocalRotation.z
      value: 0
      objectReference: {fileID: 0}
    - target: {fileID: 1146471713010659522, guid: 5655620c004ad2441b65ff5259ce041d,
        type: 3}
      propertyPath: m_LocalRotation.w
      value: 1
      objectReference: {fileID: 0}
    - target: {fileID: 1146471713010659522, guid: 5655620c004ad2441b65ff5259ce041d,
        type: 3}
      propertyPath: m_RootOrder
      value: 20
      objectReference: {fileID: 0}
    - target: {fileID: 1146471713010659522, guid: 5655620c004ad2441b65ff5259ce041d,
        type: 3}
      propertyPath: m_LocalEulerAnglesHint.x
      value: 0
      objectReference: {fileID: 0}
    - target: {fileID: 1146471713010659522, guid: 5655620c004ad2441b65ff5259ce041d,
        type: 3}
      propertyPath: m_LocalEulerAnglesHint.y
      value: 0
      objectReference: {fileID: 0}
    - target: {fileID: 1146471713010659522, guid: 5655620c004ad2441b65ff5259ce041d,
        type: 3}
      propertyPath: m_LocalEulerAnglesHint.z
      value: 0
      objectReference: {fileID: 0}
    m_RemovedComponents: []
  m_SourcePrefab: {fileID: 100100000, guid: 5655620c004ad2441b65ff5259ce041d, type: 3}
--- !u!1001 &2348313064753406429
PrefabInstance:
  m_ObjectHideFlags: 0
  serializedVersion: 2
  m_Modification:
    m_TransformParent: {fileID: 0}
    m_Modifications:
    - target: {fileID: 2348313063301635297, guid: 8b9cc0e5aa60ae44398a12ede21be633,
        type: 3}
      propertyPath: m_LocalPosition.x
      value: -14.29
      objectReference: {fileID: 0}
    - target: {fileID: 2348313063301635297, guid: 8b9cc0e5aa60ae44398a12ede21be633,
        type: 3}
      propertyPath: m_LocalPosition.y
      value: -3.32
      objectReference: {fileID: 0}
    - target: {fileID: 2348313063301635297, guid: 8b9cc0e5aa60ae44398a12ede21be633,
        type: 3}
      propertyPath: m_LocalPosition.z
      value: 25.8
      objectReference: {fileID: 0}
    - target: {fileID: 2348313063301635297, guid: 8b9cc0e5aa60ae44398a12ede21be633,
        type: 3}
      propertyPath: m_LocalRotation.x
      value: 0
      objectReference: {fileID: 0}
    - target: {fileID: 2348313063301635297, guid: 8b9cc0e5aa60ae44398a12ede21be633,
        type: 3}
      propertyPath: m_LocalRotation.y
      value: 0
      objectReference: {fileID: 0}
    - target: {fileID: 2348313063301635297, guid: 8b9cc0e5aa60ae44398a12ede21be633,
        type: 3}
      propertyPath: m_LocalRotation.z
      value: 0
      objectReference: {fileID: 0}
    - target: {fileID: 2348313063301635297, guid: 8b9cc0e5aa60ae44398a12ede21be633,
        type: 3}
      propertyPath: m_LocalRotation.w
      value: 1
      objectReference: {fileID: 0}
    - target: {fileID: 2348313063301635297, guid: 8b9cc0e5aa60ae44398a12ede21be633,
        type: 3}
      propertyPath: m_RootOrder
      value: 18
      objectReference: {fileID: 0}
    - target: {fileID: 2348313063301635297, guid: 8b9cc0e5aa60ae44398a12ede21be633,
        type: 3}
      propertyPath: m_LocalEulerAnglesHint.x
      value: 0
      objectReference: {fileID: 0}
    - target: {fileID: 2348313063301635297, guid: 8b9cc0e5aa60ae44398a12ede21be633,
        type: 3}
      propertyPath: m_LocalEulerAnglesHint.y
      value: 0
      objectReference: {fileID: 0}
    - target: {fileID: 2348313063301635297, guid: 8b9cc0e5aa60ae44398a12ede21be633,
        type: 3}
      propertyPath: m_LocalEulerAnglesHint.z
      value: 0
      objectReference: {fileID: 0}
    - target: {fileID: 2348313063301635306, guid: 8b9cc0e5aa60ae44398a12ede21be633,
        type: 3}
      propertyPath: m_Name
      value: Magnet
      objectReference: {fileID: 0}
    m_RemovedComponents: []
  m_SourcePrefab: {fileID: 100100000, guid: 8b9cc0e5aa60ae44398a12ede21be633, type: 3}
--- !u!1001 &2529115794263398461
PrefabInstance:
  m_ObjectHideFlags: 0
  serializedVersion: 2
  m_Modification:
    m_TransformParent: {fileID: 0}
    m_Modifications:
    - target: {fileID: 2529115795277811872, guid: ec3dddef437c30941af02aaf9dec5db1,
        type: 3}
      propertyPath: m_LocalPosition.x
      value: -8.26
      objectReference: {fileID: 0}
    - target: {fileID: 2529115795277811872, guid: ec3dddef437c30941af02aaf9dec5db1,
        type: 3}
      propertyPath: m_LocalPosition.y
      value: -3.15
      objectReference: {fileID: 0}
    - target: {fileID: 2529115795277811872, guid: ec3dddef437c30941af02aaf9dec5db1,
        type: 3}
      propertyPath: m_LocalPosition.z
      value: 21.84
      objectReference: {fileID: 0}
    - target: {fileID: 2529115795277811872, guid: ec3dddef437c30941af02aaf9dec5db1,
        type: 3}
      propertyPath: m_LocalRotation.x
      value: 0
      objectReference: {fileID: 0}
    - target: {fileID: 2529115795277811872, guid: ec3dddef437c30941af02aaf9dec5db1,
        type: 3}
      propertyPath: m_LocalRotation.y
      value: 0
      objectReference: {fileID: 0}
    - target: {fileID: 2529115795277811872, guid: ec3dddef437c30941af02aaf9dec5db1,
        type: 3}
      propertyPath: m_LocalRotation.z
      value: 0
      objectReference: {fileID: 0}
    - target: {fileID: 2529115795277811872, guid: ec3dddef437c30941af02aaf9dec5db1,
        type: 3}
      propertyPath: m_LocalRotation.w
      value: 1
      objectReference: {fileID: 0}
    - target: {fileID: 2529115795277811872, guid: ec3dddef437c30941af02aaf9dec5db1,
        type: 3}
      propertyPath: m_RootOrder
      value: 19
      objectReference: {fileID: 0}
    - target: {fileID: 2529115795277811872, guid: ec3dddef437c30941af02aaf9dec5db1,
        type: 3}
      propertyPath: m_LocalEulerAnglesHint.x
      value: 0
      objectReference: {fileID: 0}
    - target: {fileID: 2529115795277811872, guid: ec3dddef437c30941af02aaf9dec5db1,
        type: 3}
      propertyPath: m_LocalEulerAnglesHint.y
      value: 0
      objectReference: {fileID: 0}
    - target: {fileID: 2529115795277811872, guid: ec3dddef437c30941af02aaf9dec5db1,
        type: 3}
      propertyPath: m_LocalEulerAnglesHint.z
      value: 0
      objectReference: {fileID: 0}
    - target: {fileID: 2529115795277811877, guid: ec3dddef437c30941af02aaf9dec5db1,
        type: 3}
      propertyPath: m_Name
      value: CoinMultiplier
      objectReference: {fileID: 0}
    m_RemovedComponents: []
  m_SourcePrefab: {fileID: 100100000, guid: ec3dddef437c30941af02aaf9dec5db1, type: 3}
--- !u!1001 &3917556750799739138
PrefabInstance:
  m_ObjectHideFlags: 0
  serializedVersion: 2
  m_Modification:
    m_TransformParent: {fileID: 0}
    m_Modifications:
    - target: {fileID: 3917556751304021804, guid: 0170a7f7bb5dc7842b5ffd599f0cb6f8,
        type: 3}
      propertyPath: m_Name
      value: TempPlayer
      objectReference: {fileID: 0}
    - target: {fileID: 3917556751304021808, guid: 0170a7f7bb5dc7842b5ffd599f0cb6f8,
        type: 3}
      propertyPath: m_LocalPosition.x
      value: -14.86
      objectReference: {fileID: 0}
    - target: {fileID: 3917556751304021808, guid: 0170a7f7bb5dc7842b5ffd599f0cb6f8,
        type: 3}
      propertyPath: m_LocalPosition.y
      value: -2.35
      objectReference: {fileID: 0}
    - target: {fileID: 3917556751304021808, guid: 0170a7f7bb5dc7842b5ffd599f0cb6f8,
        type: 3}
      propertyPath: m_LocalPosition.z
      value: 13.499
      objectReference: {fileID: 0}
    - target: {fileID: 3917556751304021808, guid: 0170a7f7bb5dc7842b5ffd599f0cb6f8,
        type: 3}
      propertyPath: m_LocalRotation.x
      value: 0
      objectReference: {fileID: 0}
    - target: {fileID: 3917556751304021808, guid: 0170a7f7bb5dc7842b5ffd599f0cb6f8,
        type: 3}
      propertyPath: m_LocalRotation.y
      value: 0
      objectReference: {fileID: 0}
    - target: {fileID: 3917556751304021808, guid: 0170a7f7bb5dc7842b5ffd599f0cb6f8,
        type: 3}
      propertyPath: m_LocalRotation.z
      value: 0
      objectReference: {fileID: 0}
    - target: {fileID: 3917556751304021808, guid: 0170a7f7bb5dc7842b5ffd599f0cb6f8,
        type: 3}
      propertyPath: m_LocalRotation.w
      value: 1
      objectReference: {fileID: 0}
    - target: {fileID: 3917556751304021808, guid: 0170a7f7bb5dc7842b5ffd599f0cb6f8,
        type: 3}
      propertyPath: m_RootOrder
      value: 16
      objectReference: {fileID: 0}
    - target: {fileID: 3917556751304021808, guid: 0170a7f7bb5dc7842b5ffd599f0cb6f8,
        type: 3}
      propertyPath: m_LocalEulerAnglesHint.x
      value: 0
      objectReference: {fileID: 0}
    - target: {fileID: 3917556751304021808, guid: 0170a7f7bb5dc7842b5ffd599f0cb6f8,
        type: 3}
      propertyPath: m_LocalEulerAnglesHint.y
      value: 0
      objectReference: {fileID: 0}
    - target: {fileID: 3917556751304021808, guid: 0170a7f7bb5dc7842b5ffd599f0cb6f8,
        type: 3}
      propertyPath: m_LocalEulerAnglesHint.z
      value: 0
      objectReference: {fileID: 0}
    m_RemovedComponents: []
  m_SourcePrefab: {fileID: 100100000, guid: 0170a7f7bb5dc7842b5ffd599f0cb6f8, type: 3}
--- !u!1001 &6488326631546600155
PrefabInstance:
  m_ObjectHideFlags: 0
  serializedVersion: 2
  m_Modification:
    m_TransformParent: {fileID: 0}
    m_Modifications:
    - target: {fileID: 6488326630060894304, guid: c68c377224427104b8559189f974b689,
        type: 3}
      propertyPath: m_Name
      value: Coin
      objectReference: {fileID: 0}
    - target: {fileID: 6488326630060894308, guid: c68c377224427104b8559189f974b689,
        type: 3}
      propertyPath: m_LocalPosition.x
      value: 2.403
      objectReference: {fileID: 0}
    - target: {fileID: 6488326630060894308, guid: c68c377224427104b8559189f974b689,
        type: 3}
      propertyPath: m_LocalPosition.y
      value: -2.964
      objectReference: {fileID: 0}
    - target: {fileID: 6488326630060894308, guid: c68c377224427104b8559189f974b689,
        type: 3}
      propertyPath: m_LocalPosition.z
      value: 11.74
      objectReference: {fileID: 0}
    - target: {fileID: 6488326630060894308, guid: c68c377224427104b8559189f974b689,
        type: 3}
      propertyPath: m_LocalRotation.x
      value: 0
      objectReference: {fileID: 0}
    - target: {fileID: 6488326630060894308, guid: c68c377224427104b8559189f974b689,
        type: 3}
      propertyPath: m_LocalRotation.y
      value: 0
      objectReference: {fileID: 0}
    - target: {fileID: 6488326630060894308, guid: c68c377224427104b8559189f974b689,
        type: 3}
      propertyPath: m_LocalRotation.z
      value: 0
      objectReference: {fileID: 0}
    - target: {fileID: 6488326630060894308, guid: c68c377224427104b8559189f974b689,
        type: 3}
      propertyPath: m_LocalRotation.w
      value: 1
      objectReference: {fileID: 0}
    - target: {fileID: 6488326630060894308, guid: c68c377224427104b8559189f974b689,
        type: 3}
      propertyPath: m_RootOrder
      value: 14
      objectReference: {fileID: 0}
    - target: {fileID: 6488326630060894308, guid: c68c377224427104b8559189f974b689,
        type: 3}
      propertyPath: m_LocalEulerAnglesHint.x
      value: 0
      objectReference: {fileID: 0}
    - target: {fileID: 6488326630060894308, guid: c68c377224427104b8559189f974b689,
        type: 3}
      propertyPath: m_LocalEulerAnglesHint.y
      value: 0
      objectReference: {fileID: 0}
    - target: {fileID: 6488326630060894308, guid: c68c377224427104b8559189f974b689,
        type: 3}
      propertyPath: m_LocalEulerAnglesHint.z
      value: 0
      objectReference: {fileID: 0}
    m_RemovedComponents: []
  m_SourcePrefab: {fileID: 100100000, guid: c68c377224427104b8559189f974b689, type: 3}
